<?xml version="1.0" encoding="UTF-8" standalone="no"?>
<!-- Created with Inkscape (http://www.inkscape.org/) -->

<svg
   xmlns:dc="http://purl.org/dc/elements/1.1/"
   xmlns:cc="http://creativecommons.org/ns#"
   xmlns:rdf="http://www.w3.org/1999/02/22-rdf-syntax-ns#"
   xmlns:svg="http://www.w3.org/2000/svg"
   xmlns="http://www.w3.org/2000/svg"
   xmlns:sodipodi="http://sodipodi.sourceforge.net/DTD/sodipodi-0.dtd"
   xmlns:inkscape="http://www.inkscape.org/namespaces/inkscape"
   width="16px"
   height="16px"
   viewBox="0 0 16 16"
   version="1.1"
   id="SVGRoot"
   inkscape:version="0.92.1 r15371"
   sodipodi:docname="milkmelonpara.svg"
   inkscape:export-filename="F:\Projects\TwineHack\projects\hacked\src\tiddler\images\mutbar_icons\milkmelonpara.png"
   inkscape:export-xdpi="96"
   inkscape:export-ydpi="96">
  <sodipodi:namedview
     id="base"
     pagecolor="#ffffff"
     bordercolor="#666666"
     borderopacity="1.0"
     inkscape:pageopacity="0.0"
     inkscape:pageshadow="2"
     inkscape:zoom="16"
     inkscape:cx="8"
     inkscape:cy="8"
     inkscape:document-units="px"
     inkscape:current-layer="layer1"
     showgrid="false"
     inkscape:window-width="1920"
     inkscape:window-height="1018"
     inkscape:window-x="-32000"
     inkscape:window-y="-32000"
     inkscape:window-maximized="0"
     inkscape:grid-bbox="true"
     inkscape:pagecheckerboard="true"
     inkscape:measure-start="0,0"
     inkscape:measure-end="0,0" />
  <defs
     id="defs9526" />
  <metadata
     id="metadata9529">
    <rdf:RDF>
      <cc:Work
         rdf:about="">
        <dc:format>image/svg+xml</dc:format>
        <dc:type
           rdf:resource="http://purl.org/dc/dcmitype/StillImage" />
        <dc:title></dc:title>
      </cc:Work>
    </rdf:RDF>
  </metadata>
  <g
     id="layer1"
     inkscape:groupmode="layer"
     inkscape:label="Layer 1">
    <path
       style="fill:#000000;fill-opacity:1;stroke:none;stroke-width:0.54278225;stroke-linecap:round;stroke-linejoin:miter;stroke-miterlimit:4;stroke-dasharray:none;stroke-opacity:1"
       d="M 7.9511719 1.9609375 A 6.0384526 6.0384526 0 0 0 2.1679688 6.4316406 A 6.0384526 6.0384526 0 0 0 6.4296875 13.830078 L 6.4375 13.832031 A 6.0384526 6.0384526 0 0 0 13.832031 9.5644531 A 6.0384526 6.0384526 0 0 0 9.5664062 2.1679688 A 6.0384526 6.0384526 0 0 0 7.9511719 1.9609375 z M 3.6738281 4.1113281 L 6.2265625 4.1113281 L 7.9980469 8.2734375 L 9.7792969 4.1113281 L 12.326172 4.1113281 L 12.326172 11.888672 L 10.429688 11.888672 L 10.429688 6.2011719 L 8.6386719 10.392578 L 7.3671875 10.392578 L 5.5761719 6.2011719 L 5.5761719 11.888672 L 3.6738281 11.888672 L 3.6738281 4.1113281 z "
       id="path10085" />
    <path
       d="m 2.7706567,2.5669224 a 7.3954082,7.3954082 0 0 1 10.4586863,-3e-7"
       sodipodi:open="true"
       sodipodi:end="5.4977871"
       sodipodi:start="3.9269908"
       sodipodi:ry="7.3954082"
       sodipodi:rx="7.3954082"
       sodipodi:cy="7.7962656"
       sodipodi:cx="8"
       sodipodi:type="arc"
       id="path10087"
       style="fill:none;fill-opacity:1;stroke:#000000;stroke-width:0.66475576;stroke-linecap:round;stroke-linejoin:miter;stroke-miterlimit:4;stroke-dasharray:none;stroke-opacity:1" />
    <path
       style="fill:none;fill-opacity:1;stroke:#000000;stroke-width:0.66475576;stroke-linecap:round;stroke-linejoin:miter;stroke-miterlimit:4;stroke-dasharray:none;stroke-opacity:1"
       id="path10089"
       sodipodi:type="arc"
       sodipodi:cx="-7.9999995"
       sodipodi:cy="-8.2037344"
       sodipodi:rx="7.3954082"
       sodipodi:ry="7.3954082"
       sodipodi:start="3.9269908"
       sodipodi:end="5.4977871"
       sodipodi:open="true"
       d="m -13.229343,-13.433078 a 7.3954082,7.3954082 0 0 1 10.4586865,0"
       transform="scale(-1)" />
  </g>
</svg>
